<?xml version="1.0" encoding="utf-8"?>
<!-- Generator: Adobe Illustrator 22.1.0, SVG Export Plug-In . SVG Version: 6.00 Build 0)  -->
<svg version="1.1" id="Layer_1" xmlns="http://www.w3.org/2000/svg" xmlns:xlink="http://www.w3.org/1999/xlink" x="0px" y="0px"
	 viewBox="0 0 721.7 135.6" style="enable-background:new 0 0 721.7 135.6;" xml:space="preserve">
<g>
	<path d="M336.8,110.2c-11.4-27.8-22.7-55.7-33.9-83.5c-0.5-1.2-1.1-2.4-1.6-3.6c-0.4,0-0.8,0.1-1.1,0.1c-4.5,26.1-9,52.1-13.6,78.1
		c-0.4,2.5,0.6,3.8,2.7,4.6c1.6,0.6,3.3,0.9,4.9,1.6c-8.6,0-17.2,0-25.9,0c0-0.1-0.1-0.2-0.1-0.3c0.6-0.2,1.3-0.5,1.9-0.6
		c4.4-0.4,6.2-3.2,6.9-7.1c1.8-9.2,3.6-18.3,5.4-27.5c4.5-22.5,9-45,13.7-67.5c0.3-1.5,2.5-4,3.6-3.8c1.8,0.2,4.2,1.8,5,3.4
		c5.7,13.3,11.1,26.7,16.6,40.1c6.7,16.4,13.5,32.8,20.2,49.1c0.5,1.1,1,2.3,1.8,4.2c1.2-2.9,2.1-5.1,2.9-7.3
		C357.6,61.8,368.8,33.4,380,5c0.2-0.5,0.3-1.1,0.6-1.3c1.6-1.1,3.1-2.8,4.9-3.1c2.6-0.4,3,2.1,3.3,4.1c1.1,8.2,2.1,16.3,3.2,24.5
		c2.9,22.4,5.8,44.8,8.7,67.2c0.5,3.6,0.8,7.1,1.3,11c-3.6,0-7,0-10.7,0c-3.7-28.3-7.4-56.6-11.1-84.9c-0.3-0.1-0.6-0.2-0.8-0.2
		c-0.5,1.2-1.1,2.5-1.6,3.7c-11,28.1-21.9,56.2-33,84.3"/>
	<path d="M654,135.6c-14.2-0.3-28.5-8.9-38.7-18.3c-13.9-12.9-27.3-26.4-40.8-39.6c-3.5-3.4-7.1-6.7-10.2-10.5
		c-3-3.7-6.5-4.9-11-4.5c-3.8,0.3-7.7,0.1-12.1,0.1c0,2.3,0,4.3,0,6.2c0,9-0.1,18,0.1,27c0.2,8.3,1.8,9.6,9.9,10.3
		c0.6,0,1.1,0.2,1.6,0.9c-10.7,0-21.5,0-32.2,0c8.2-1.9,8.5-8.2,8.5-14.7c0-21.2,0.1-42.5,0.2-63.7c0-9.2,0-18.5,0-28.2
		c1.4-0.1,2.6-0.2,3.8-0.2c8.6,0,17.3-0.5,25.9,0.2c5.7,0.5,11.5,2.1,16.8,4.4c6.1,2.6,9.7,8,11.3,14.6c3.7,15.7-1.2,28.2-15.8,39.7
		c6.7,7.2,13.3,14.4,20.1,21.5c13.3,13.8,26.7,25.7,40.6,39.5c5.8,4.8,5.9,5.1,12.7,10.7c0.1,0.1,1.4,1.2,1.5,1.2
		c2.2,1.3,2.1,1.4,10.1,3.5 M542.9,31.2c0,6.7,0.1,13.5-0.1,20.2c-0.1,2.6,0.9,3.8,3.2,4.7c5.5,2,11,1.8,16.6,0.7
		c5.2-1,9.3-3.8,11.6-8.5c1.6-3.3,2.9-6.9,3.5-10.5c1.2-8.2,0.7-16.2-4.5-23.2C566.1,5,556.1,5.8,546,6.7c-2.6,0.2-3.2,1.5-3.2,3.9
		C542.9,17.5,542.9,24.4,542.9,31.2z"/>
	<path d="M93.8,4.6c0,9.1,0,17.5,0,26c-0.5,0-1,0.1-1.5,0.1c-0.3-1.6-0.8-3.2-1-4.8c-0.8-7.5-4.9-12.6-11.8-14.9
		C65.7,6.2,51.7,5.6,37.7,10c-8.1,2.5-14.3,7.7-18.3,15.1c-5.5,10.1-7.7,21-6.6,32.5c3,29.8,21.8,38.7,42.7,42.5
		c2.1,0.4,4.2,0.7,6.3,0.8c9.8,0.6,19.2-0.6,27.3-8.4c0,3.8,0.1,6.7-0.1,9.7c-0.1,0.8-1,2.1-1.8,2.3c-25.3,6.9-49.5,5.8-71.2-10.8
		c-9.7-7.4-14.4-17.9-15.5-30c-0.9-9.4-0.8-18.7,1.8-27.9C7.6,17.3,20.9,7.4,38.7,2.7c14.5-3.8,29.2-2.8,43.9-0.4
		C86.5,3,90.5,3.9,93.8,4.6z"/>
	<path d="M191.5,107.8c-0.6,0.2-0.7,0.3-0.9,0.3c-9.3,0.7-9.4,0.7-12.5-8.1c-8.7-24.2-17.3-48.3-26-72.5c-0.4-1.2-1-2.4-1.8-4.7
		c-1.1,2.9-1.8,4.7-2.4,6.6c-7.4,22.4-14.8,44.7-22.2,67.1c-2.7,8.3-2.6,8.3,6,11.4c-10.5,0-20.1,0-30.8,0c2.4-0.7,3.8-1.4,5.2-1.5
		c5.1-0.3,7.8-3.5,9.5-7.8c3.7-9.5,7.3-19.1,10.9-28.7C134.8,48,143,26,151.3,4.1c0.4-1,0.9-2,1.7-3.8
		C166,36.7,178.7,72.3,191.5,107.8z"/>
	<path d="M445,108.1c-9.6,0-19.2,0-28.7,0c-0.1-0.2-0.1-0.4-0.2-0.6c1.2-0.3,2.4-0.8,3.6-1c5.5-0.6,8.6-3.9,10.5-8.8
		c3.5-9.3,7.1-18.6,10.6-28C449,48,457.2,26.2,465.4,4.4c0.4-1,0.8-2.1,1.7-4.3c13.1,36.4,25.8,71.9,38.8,108.1
		c-3.4,0-6.4,0.3-9.2-0.1c-1-0.1-2.1-1.9-2.5-3.1c-9.3-25.8-18.5-51.6-27.8-77.4c-0.4-1.2-0.9-2.3-1.6-4.2c-0.7,1.3-1.3,2-1.6,2.7
		c-8,24.1-16,48.3-23.9,72.4c-0.2,0.6-0.4,1.2-0.6,1.8c-1.1,4.1-0.5,5.3,3.7,6.4c0.9,0.3,1.8,0.5,2.8,0.8
		C445.1,107.7,445.1,107.9,445,108.1z"/>
	<path d="M660.9,108.2c-9.1,0-18.1,0-27.2,0c-0.6,0-1.1-0.1-1.7-0.7c1.5-0.4,2.9-1,4.5-1.1c4.5-0.4,7.3-3,8.9-7
		c3.1-7.9,6.2-15.8,9.2-23.7c9.4-24.8,18.7-49.7,28.4-75.6c13.1,36.5,25.9,72.1,38.8,108.2c-3.4,0-6.2,0.3-8.8-0.1
		c-1.1-0.2-2.4-1.8-2.8-3.1c-9.1-25.1-18-50.2-27-75.3c-0.7-2-1.5-3.9-2.6-6.7c-0.9,2.2-1.5,3.5-1.9,4.8
		C670.7,51.2,663,74.6,655.3,98c-0.2,0.5-0.3,1-0.4,1.4c-1.6,5.1-1,6.1,4,7.4c0.7,0.2,1.4,0.4,2.1,0.6
		C660.9,107.7,660.9,108,660.9,108.2z"/>
	<path d="M239.8,22.5c-0.2-0.6-0.7-1.1-0.7-1.7c-0.4-8.6-4.9-11.9-15.3-13.7c-0.7-0.1-1.5-0.2-2.2-0.3c-7.1-0.4-13.8,0.9-16.9,7.8
		c-2.9,6.4-2.2,13,2.6,18.2c5.8,6.4,12.1,12.3,18.3,18.2c15,14.3,24.6,31.2,28,52c1.3,8.6,0.1,16.4,3.8,22.1
		c-2.6-0.9-4.6-4.5-5.3-7.9c0,0,0-0.1,0-0.1c-2-15.2-8.6-28.4-18.9-39.5c-6.4-6.9-14.2-12.6-21.1-19c-4.7-4.4-9.6-8.9-13.5-14
		c-13.7-18.1-6.4-38,15.8-43.3c8.4-2,16.9-1.5,25.1,1.3c0.9,0.3,2.3,1.3,2.3,1.9c-0.1,5.9-0.5,11.9-0.7,17.8
		C240.6,22.5,240.2,22.5,239.8,22.5z"/>
</g>
</svg>
